Risk-return relationship
…
Risk-return relationship

Rodolfo Vanzini

6/11/2019

I want to investigate the risk-return relationship in a 25,308 mutual funds dataset.

First import the data set

library(tidyverse)
(dt_set <- read_csv("data/funds.csv"))

## # A tibble: 25,308 x 125
##    fund_name fund_extended_n category fund_family net_assets ytd_return
##    <chr>     <chr>            <chr>    <chr>            <dbl>      <dbl>
##  1 AAAAX     DWS RREEF Real  World A DWS          530280000      12.8 
##  2 AAADX     Aberdeen Income Large B Aberdeen      88840000       9.21
##  3 AAAGX     Thrivent Large  Large G Thrivent F 1080000000      16   
##  4 AAAIX     American Centur Allocat American C  785270000      11.6 
##  5 AAANX     Horizon Active  Tactica Horizon In  527130000      11.6 
##  6 AAAPX     DWS RREEF Real  World A DWS          530280000      12.5 
##  7 AAAQX     DWS RREEF Real  World A DWS          530280000      12.7 
##  8 AAARX     American Centur Allocat American C  785270000      11.4 
##  9 AAASX     DWS RREEF Real  World A DWS          530280000      12.8 
## 10 AAATX     American Funds  Target- American F 3200000000       5.97
## #  with 25,298 more rows, and 119 more variables: fund_yield <dbl>,
## #   morningstar_rating <dbl>, inception_date <date>, investment <chr>,
## #   size <chr>, currency <chr>, net_annual_expense_ratio_fund <dbl>,
## #   net_annual_expense_ratio_category <dbl>, portfolio_cash <dbl>,
## #   portfolio_stocks <dbl>, portfolio_bonds <dbl>, portfolio_others <dbl>,
## #   portfolio_preferred <dbl>, portfolio_convertable <dbl>,
## #   price_earnings <dbl>, price_book <dbl>, price_sales <dbl>,
## #   price_cashflow <dbl>, median_market_cap <dbl>, basic_materials <dbl>,
## #   consumer_cyclical <dbl>, financial_services <dbl>, real_estate <dbl>,
…
Lets select the colums we want.

(f_return <- dt_set %>% select(fund_name, contains("fund_mean_annual")))

## # A tibble: 25,308 x 4
##    fund_name fund_mean_annual_re fund_mean_annual_re fund_mean_annual_re
##    <chr>                    <dbl>                <dbl>                <dbl>
##  1 AAAAX                    0.6                   0.27                 0.55
##  2 AAADX                    0.83                  0.6                  1.01
##  3 AAAGX                    1.27                  1.02                 1.29
##  4 AAAIX                    0.78                  0.56                 0.95
##  5 AAANX                    0.79                  0.52                NA   
##  6 AAAPX                    0.54                  0.2                  0.48
##  7 AAAQX                    0.580                 0.25                 0.53
##  8 AAARX                    0.72                  0.5                  0.89
##  9 AAASX                    0.61                  0.28                 0.56
## 10 AAATX                    0.47                  0.39                 0.73
## #  with 25,298 more rows

(f_stdev <- dt_set %>% select(fund_name, contains("fund_standard_deviation")))

## # A tibble: 25,308 x 4
##    fund_name fund_standard_devia fund_standard_devia fund_standard_devia
##    <chr>                    <dbl>                <dbl>                <dbl>
##  1 AAAAX                     8.57                 7.73                 8.33
##  2 AAADX                     8.58                10.4                 12.0 
##  3 AAAGX                    13.4                 13.4                 14.9 
##  4 AAAIX                     8.76                 9.29                11.0 
##  5 AAANX                    11.3                 11.6                 NA   
##  6 AAAPX                     8.57                 7.74                 8.34
##  7 AAAQX                     8.55                 7.73                 8.33
##  8 AAARX                     8.73                 9.27                10.9 
##  9 AAASX                     8.56                 7.75                 8.31
## 10 AAATX                     4.14                 4.93                 6.4 
## #  with 25,298 more rows
…
